{
  "frames": {
    "bg.png": {
      "frame": {
        "x": 1,
        "y": 1,
        "w": 900,
        "h": 506
      },
      "rotated": false,
      "trimmed": false,
      "spriteSourceSize": {
        "x": 0,
        "y": 0,
        "w": 900,
        "h": 506
      },
      "sourceSize": {
        "w": 900,
        "h": 506
      },
      "anchor": { "x": 0.5, "y": 0.5 }
    },
    "bible.png": {
      "frame": {
        "x": 1,
        "y": 509,
        "w": 90,
        "h": 75
      },
      "rotated": false,
      "trimmed": false,
      "spriteSourceSize": {
        "x": 0,
        "y": 0,
        "w": 90,
        "h": 75
      },
      "sourceSize": {
        "w": 90,
        "h": 75
      },
      "anchor": { "x": 0.5, "y": 0.5 }
    },
    "scorebar.png": {
      "frame": {
        "x": 1,
        "y": 586,
        "w": 300,
        "h": 89
      },
      "rotated": false,
      "trimmed": false,
      "spriteSourceSize": {
        "x": 0,
        "y": 0,
        "w": 300,
        "h": 89
      },
      "sourceSize": {
        "w": 300,
        "h": 89
      },
      "anchor": { "x": 0.5, "y": 0.5 }
    },
    "sprite-zinya.png": {
      "frame": {
        "x": 1,
        "y": 677,
        "w": 150,
        "h": 143
      },
      "rotated": false,
      "trimmed": false,
      "spriteSourceSize": {
        "x": 0,
        "y": 0,
        "w": 150,
        "h": 143
      },
      "sourceSize": {
        "w": 150,
        "h": 143
      },
      "anchor": { "x": 0.5, "y": 0.5 }
    }
  },
  "meta": {
    "app": "http://www.codeandweb.com/texturepacker",
    "version": "1.0",
    "image": "spritesheet.png",
    "format": "RGBA8888",
    "size": {
      "w": 902,
      "h": 821
    },
    "scale": "1"
  }
}
